…
    ## Warning: There were 43 warnings in `mutate()`.
    ## The first warning was:
    ## ℹ In argument: `tidy = map(...)`.
    ## Caused by warning:
    ## ! glm.fit: fitted probabilities numerically 0 or 1 occurred
    ## ℹ Run `dplyr::last_dplyr_warnings()` to see the 42 remaining warnings.

``` r
city_OR
```

    ## # A tibble: 47 × 4
    ##    city_state         OR OR_low OR_high
    ##    <chr>           <dbl>  <dbl>   <dbl>
    ##  1 Albuquerque, NM 1.77   0.825   3.76 
    ##  2 Atlanta, GA     1.00   0.680   1.46 
    ##  3 Baltimore, MD   0.426  0.324   0.558
    ##  4 Baton Rouge, LA 0.381  0.204   0.684
    ##  5 Birmingham, AL  0.870  0.571   1.31 
    ##  6 Boston, MA      0.674  0.353   1.28 
    ##  7 Buffalo, NY     0.521  0.288   0.936
    ##  8 Charlotte, NC   0.884  0.551   1.39 
    ##  9 Chicago, IL     0.410  0.336   0.501
    ## 10 Cincinnati, OH  0.400  0.231   0.667
    ## # ℹ 37 more rows
…
  mutate(
    fit=map(strap, ~lm (tmax~tmin+prcp,data=.x)),
    r2=map_dbl(fit, ~broom::glance (.x)$r.squared),
    beta_ratio=map_dbl(fit, ~ {
      coefs <-broom::tidy (.x)
      beta1 <-coefs |> filter(term=="tmin") |> pull(estimate)
      beta2 <-coefs |> filter(term=="prcp") |> pull(estimate)
      beta1/beta2
    })
  ) |> 
  select (-strap,-fit)
centralpark
```

    ## # A tibble: 5,000 × 3
    ##    .id      r2 beta_ratio
    ##    <chr> <dbl>      <dbl>
    ##  1 0001  0.917      -560.
    ##  2 0002  0.919      -773.
    ##  3 0003  0.917      -384.
    ##  4 0004  0.924      -293.
    ##  5 0005  0.914     -1058.
    ##  6 0006  0.903     -1960.
    ##  7 0007  0.908      -635.
    ##  8 0008  0.923      -923.
    ##  9 0009  0.909       650.
    ## 10 0010  0.909     -5115.
    ## # ℹ 4,990 more rows
…
